ID;name;technology;descr
106;SAPUI5;Javascript;important
105;ABAP;SAP;nice to have
104;Node;JS;also some stuff
103;Typescript;JS;also some more stuff
102;SAP-CAP;Middleware;awesome new sap service layer
101;test skill 1;test skill 1;test skill 1